INDEX VERSION 1.131+C:\training bash\hibernateproject1\.metadata\.plugins\org.eclipse.jdt.core
3680429690.index
1488534613.index
3571066969.index
433163340.index
4177597037.index
2034846429.index
2682982624.index
1609867368.index
48114524.index
801172105.index
2984215839.index
3933124340.index
3343532953.index
1582905408.index
3586689489.index
3903571285.index
1985240999.index
3157044310.index
1438977354.index
1005790594.index
3269514373.index
1972723842.index
1150735536.index
304051472.index
1565745223.index
3780881561.index
3434307472.index
1865797976.index
3066105409.index
2387638022.index
2968196201.index
1227020332.index
3922856962.index
473561058.index
2839855084.index
369677741.index
3919348244.index
1773458997.index
3994784044.index
1542828085.index
3011219937.index
3129943450.index
3076284073.index
1506788758.index
1802731218.index
1089082882.index
2782283824.index
2127153568.index
2265748344.index
389383862.index
3023197897.index
699971464.index
2401157469.index
3671862353.index
3977191084.index
855430861.index
3160931234.index
3240520518.index
1544065898.index
2637691449.index
2142803910.index
3665581905.index
2899363800.index
